570931345389531138 570810532074106881 570840708522704896 570961551223443456
573386508880646145 573394291579482114 573385582992207872
577145958175227904 561548221156052993 561546487117512704 561551482885906432 577145671498801152 561546165607358464
571493177271533568 571604048199081984 571611308002439168 571607927838019585 571617537445638144 571604703647170561 571606113545666560
569681112378662913 557387081370968066 559898257610907648 558202480471715841 557371955033014272 515093406494650369
561157929693224961 523486282857451520 561177192999047168 557387081370968066 558202480471715841 557371955033014272
521955919735697409 520915934051979264 557387081370968066 558202480471715841 557371955033014272 538197870726242304 515093406494650369
561157929693224961 523486282857451520 520915934051979264 559898257610907648 515093406494650369